What’s Really Warming the World?
…
data_url <- paste0("https://data.giss.nasa.gov",
                   "/gistemp/graphs_v3/graph_d",
                   "ata/GISTEMP_Seasonal_Cycle",
                   "_since_1880/graph.csv")

# READ THE DATA FROM THE URL, BUT SKIP THE FIRST LINE!
temp_dat <- read_csv(data_url, skip = 1)
```
]

.pull-right[

```
## # A tibble: 1,675 × 2
##     Year Anomaly
##    <dbl>   <dbl>
##  1 1880.   -2.7 
##  2 1880.   -2.33
##  3 1880.   -1.58
##  4 1880.   -0.67
##  5 1880.    0.35
##  6 1880.    0.93
##  7 1881.    1.21
##  8 1881.    1.21
##  9 1881.    0.49
## 10 1881.   -0.59
## # … with 1,665 more rows
```
…
.pull-right[

```
## # A tibble: 140 × 2
##    Year       avg_temp
##    <date>        <dbl>
##  1 1880-01-01   -0.643
##  2 1881-01-01   -0.556
##  3 1882-01-01   -0.565
##  4 1883-01-01   -0.647
##  5 1884-01-01   -0.749
##  6 1885-01-01   -0.77 
##  7 1886-01-01   -0.778
##  8 1887-01-01   -0.807
##  9 1888-01-01   -0.634
## 10 1889-01-01   -0.563
## # … with 130 more rows
```
…
.pull-left[

```r
data_url <- paste0("https://www.bloomberg.com/",
                   "graphics/2015-whats-warming",
                   "-the-world/data/forcings.csv")

causes_dat <- read_csv(data_url)
```
]

.pull-right[

```
## # A tibble: 156 × 11
##     Year `All forcings` Human Natural `Anthropogenic troposph…` `Greenhouse ga…`
##    <dbl>          <dbl> <dbl>   <dbl>                     <dbl>            <dbl>
##  1  1850           287.  287.    287.                      287.             287.
##  2  1851           288.  287.    287.                      287.             287.
##  3  1852           288.  287.    288.                      287.             287.
##  4  1853           287.  287.    288.                      287.             287.
##  5  1854           287.  287.    288.                      287.             287.
##  6  1855           287.  287.    287.                      287.             287.
##  7  1856           287.  287.    287.                      287.             287.
##  8  1857           287.  287.    287.                      287.             287.
##  9  1858           287.  287.    287.                      287.             287.
## 10  1859           287.  287.    287.                      287.             287.
## # … with 146 more rows, and 5 more variables: `Land use` <dbl>,
## #   `Orbital changes` <dbl>, Ozone <dbl>, Solar <dbl>, Volcanic <dbl>
```
…
.pull_right[

```
## # A tibble: 126 × 11
##    Year       all_factors natural_factors human_factors  orbital    solar
##    <date>           <dbl>           <dbl>         <dbl>    <dbl>    <dbl>
##  1 1880-01-01      0.0441          0.118       -0.0334  -0.0149  -0.0476 
##  2 1881-01-01      0.0945          0.158        0.0140  -0.0411  -0.0296 
##  3 1882-01-01      0.0706          0.148       -0.0707  -0.0234   0.00104
##  4 1883-01-01      0.0150          0.0412      -0.0401  -0.0248  -0.0115 
##  5 1884-01-01     -0.312          -0.267        0.0292  -0.00413  0.0274 
##  6 1885-01-01     -0.270          -0.233        0.0290  -0.0306   0.0853 
##  7 1886-01-01     -0.211          -0.135        0.0614  -0.0473   0.0447 
##  8 1887-01-01     -0.151          -0.128        0.0507  -0.00237  0.00241
##  9 1888-01-01     -0.0863         -0.102       -0.00495  0.00338 -0.00580
## 10 1889-01-01     -0.0693         -0.0769      -0.00491 -0.0566   0.00247
## # … with 116 more rows, and 5 more variables: volcanic <dbl>, land_use <dbl>,
## #   ozone <dbl>, aerosol <dbl>, greenhouse_gas <dbl>
```
…
Now we have temperature data and causes data, but in two datasets. Let's join 
them jawns and then we'll be good to go!

.pull-left[

```r
plot_data <- temp_dat %>% 
    left_join(cause_final, by = "Year")
```
]

.pull-right[

```
## # A tibble: 140 × 12
##    Year       avg_temp all_factors natural_factors human_factors  orbital
##    <date>        <dbl>       <dbl>           <dbl>         <dbl>    <dbl>
##  1 1880-01-01   0.0797      0.0441          0.118       -0.0334  -0.0149 
##  2 1881-01-01   0.166       0.0945          0.158        0.0140  -0.0411 
##  3 1882-01-01   0.157       0.0706          0.148       -0.0707  -0.0234 
##  4 1883-01-01   0.0756      0.0150          0.0412      -0.0401  -0.0248 
##  5 1884-01-01  -0.0269     -0.312          -0.267        0.0292  -0.00413
##  6 1885-01-01  -0.0478     -0.270          -0.233        0.0290  -0.0306 
##  7 1886-01-01  -0.0561     -0.211          -0.135        0.0614  -0.0473 
##  8 1887-01-01  -0.0844     -0.151          -0.128        0.0507  -0.00237
##  9 1888-01-01   0.0881     -0.0863         -0.102       -0.00495  0.00338
## 10 1889-01-01   0.159      -0.0693         -0.0769      -0.00491 -0.0566 
## # … with 130 more rows, and 6 more variables: solar <dbl>, volcanic <dbl>,
## #   land_use <dbl>, ozone <dbl>, aerosol <dbl>, greenhouse_gas <dbl>
```
…
